................
----------------------------------------------------------------------
Ran 16 tests in 0.002s

OK
Name               Stmts   Miss Branch BrPart  Cover   Missing
--------------------------------------------------------------
Diplomacy.py         119     14     84      5    86%   38, 49->52, 52, 55-58, 73->68, 96->97, 97-103, 105->77, 146->147, 147
TestDiplomacy.py      82      0      2      1    99%   120->exit
--------------------------------------------------------------
TOTAL                201     14     86      6    90%
