F..FFFF
======================================================================
FAIL: test_print (__main__.TestDiplomacy)
----------------------------------------------------------------------
Traceback (most recent call last):
  File "TestDiplomacy.py", line 71, in test_print
    self.assertEqual(w.getvalue(), "A Madrid Hold")
AssertionError: 'A\n \nM\na\nd\nr\ni\nd\n \nH\no\nl\nd\n' != 'A Madrid Hold'
+ A Madrid Hold- A
-  
- M
- a
- d
- r
- i
- d
-  
- H
- o
- l
- d


======================================================================
FAIL: test_solve_2 (__main__.TestDiplomacy)
----------------------------------------------------------------------
Traceback (most recent call last):
  File "TestDiplomacy.py", line 44, in test_solve_2
    self.assertEqual(w.getvalue(), 'B [dead]\nC [dead]\nD [dead]')
AssertionError: 'B [dead]\nC [dead]\nD [dead]\n' != 'B [dead]\nC [dead]\nD [dead]'
  B [dead]
  C [dead]
- D [dead]
?         -
+ D [dead]

======================================================================
FAIL: test_solve_3 (__main__.TestDiplomacy)
----------------------------------------------------------------------
Traceback (most recent call last):
  File "TestDiplomacy.py", line 50, in test_solve_3
    self.assertEqual(w.getvalue(), 'F [dead]\nG [dead]')
AssertionError: 'F [dead]\nG [dead]\n' != 'F [dead]\nG [dead]'
  F [dead]
- G [dead]
?         -
+ G [dead]

======================================================================
FAIL: test_solve_4 (__main__.TestDiplomacy)
----------------------------------------------------------------------
Traceback (most recent call last):
  File "TestDiplomacy.py", line 56, in test_solve_4
    self.assertEqual(w.getvalue(), 'I Madrid\nJ London')
AssertionError: 'I Madrid\nJ London\n' != 'I Madrid\nJ London'
  I Madrid
- J London
?         -
+ J London

======================================================================
FAIL: test_solve_5 (__main__.TestDiplomacy)
----------------------------------------------------------------------
Traceback (most recent call last):
  File "TestDiplomacy.py", line 62, in test_solve_5
    self.assertEqual(w.getvalue(), 'A [dead]\nB [dead]')
AssertionError: 'A [dead]\nB [dead]\n' != 'A [dead]\nB [dead]'
  A [dead]
- B [dead]
?         -
+ B [dead]

----------------------------------------------------------------------
Ran 7 tests in 0.002s

FAILED (failures=5)
